<?xml version="1.0" encoding="UTF-8" standalone="no"?>
<!-- Created with Inkscape (http://www.inkscape.org/) -->

<svg
   width="180"
   height="180"
   viewBox="0 0 180 180"
   version="1.1"
   id="svg1"
   xml:space="preserve"
   xmlns:inkscape="http://www.inkscape.org/namespaces/inkscape"
   xmlns:sodipodi="http://sodipodi.sourceforge.net/DTD/sodipodi-0.dtd"
   xmlns:xlink="http://www.w3.org/1999/xlink"
   xmlns="http://www.w3.org/2000/svg"
   xmlns:svg="http://www.w3.org/2000/svg"
   xmlns:rdf="http://www.w3.org/1999/02/22-rdf-syntax-ns#"
   xmlns:cc="http://creativecommons.org/ns#"><sodipodi:namedview
     id="namedview1"
     pagecolor="#ffffff"
     bordercolor="#000000"
     borderopacity="0.25"
     inkscape:showpageshadow="2"
     inkscape:pageopacity="0.0"
     inkscape:pagecheckerboard="0"
     inkscape:deskcolor="#d1d1d1"
     inkscape:document-units="px" /><defs
     id="defs1" /><metadata
     id="metadata1"><rdf:RDF><cc:Work
         rdf:about=""><cc:license
           rdf:resource="http://creativecommons.org/licenses/by-sa/4.0/" /></cc:Work><cc:License
         rdf:about="http://creativecommons.org/licenses/by-sa/4.0/"><cc:permits
           rdf:resource="http://creativecommons.org/ns#Reproduction" /><cc:permits
           rdf:resource="http://creativecommons.org/ns#Distribution" /><cc:requires
           rdf:resource="http://creativecommons.org/ns#Notice" /><cc:requires
           rdf:resource="http://creativecommons.org/ns#Attribution" /><cc:permits
           rdf:resource="http://creativecommons.org/ns#DerivativeWorks" /><cc:requires
           rdf:resource="http://creativecommons.org/ns#ShareAlike" /></cc:License></rdf:RDF></metadata><g
     id="g3"
     transform="matrix(0.37479004,0,0,0.37479004,58.111531,50.926246)"><g
       inkscape:label="Layer 1"
       inkscape:groupmode="layer"
       id="g2"
       style="display:inline"
       transform="translate(-366.29507,12.18004)"><image
         width="480.94714"
         height="327.34232"
         preserveAspectRatio="none"
         style="display:inline;fill:#000000;fill-opacity:1;stroke:#000000;stroke-opacity:1;image-rendering:optimizeQuality"
         xlink:href="data:image/png;base64,iVBORw0KGgoAAAANSUhEUgAAAoUAAAG3CAYAAADCcy/vAAAACXBIWXMAAA3XAAAN1wFCKJt4AAAF&#10;F2lUWHRYTUw6Y29tLmFkb2JlLnhtcAAAAAAAPD94cGFja2V0IGJlZ2luPSLvu78iIGlkPSJXNU0w&#10;TXBDZWhpSHpyZVN6TlRjemtjOWQiPz4gPHg6eG1wbWV0YSB4bWxuczp4PSJhZG9iZTpuczptZXRh&#10;LyIgeDp4bXB0az0iQWRvYmUgWE1QIENvcmUgNi4wLWMwMDIgNzkuMTY0NDYwLCAyMDIwLzA1LzEy&#10;LTE2OjA0OjE3ICAgICAgICAiPiA8cmRmOlJERiB4bWxuczpyZGY9Imh0dHA6Ly93d3cudzMub3Jn&#10;LzE5OTkvMDIvMjItcmRmLXN5bnRheC1ucyMiPiA8cmRmOkRlc2NyaXB0aW9uIHJkZjphYm91dD0i&#10;IiB4bWxuczp4bXA9Imh0dHA6Ly9ucy5hZG9iZS5jb20veGFwLzEuMC8iIHhtbG5zOmRjPSJodHRw&#10;Oi8vcHVybC5vcmcvZGMvZWxlbWVudHMvMS4xLyIgeG1sbnM6cGhvdG9zaG9wPSJodHRwOi8vbnMu&#10;YWRvYmUuY29tL3Bob3Rvc2hvcC8xLjAvIiB4bWxuczp4bXBNTT0iaHR0cDovL25zLmFkb2JlLmNv&#10;bS94YXAvMS4wL21tLyIgeG1sbnM6c3RFdnQ9Imh0dHA6Ly9ucy5hZG9iZS5jb20veGFwLzEuMC9z&#10;VHlwZS9SZXNvdXJjZUV2ZW50IyIgeG1wOkNyZWF0b3JUb29sPSJBZG9iZSBQaG90b3Nob3AgMjEu&#10;MiAoV2luZG93cykiIHhtcDpDcmVhdGVEYXRlPSIyMDIyLTAxLTI3VDAyOjMzOjMzLTAzOjAwIiB4&#10;bXA6TW9kaWZ5RGF0ZT0iMjAyMi0wMS0yOFQxODoyODo0Ni0wMzowMCIgeG1wOk1ldGFkYXRhRGF0&#10;ZT0iMjAyMi0wMS0yOFQxODoyODo0Ni0wMzowMCIgZGM6Zm9ybWF0PSJpbWFnZS9wbmciIHBob3Rv&#10;c2hvcDpDb2xvck1vZGU9IjMiIHBob3Rvc2hvcDpJQ0NQcm9maWxlPSJHSU1QIGJ1aWx0LWluIHNS&#10;R0IiIHhtcE1NOkluc3RhbmNlSUQ9InhtcC5paWQ6MGQzMDdjYjAtZmE5ZC04MzRjLThmMDQtZGEy&#10;ZmRlMGJmYzYwIiB4bXBNTTpEb2N1bWVudElEPSJ4bXAuZGlkOjBkMzA3Y2IwLWZhOWQtODM0Yy04&#10;ZjA0LWRhMmZkZTBiZmM2MCIgeG1wTU06T3JpZ2luYWxEb2N1bWVudElEPSJ4bXAuZGlkOjBkMzA3&#10;Y2IwLWZhOWQtODM0Yy04ZjA0LWRhMmZkZTBiZmM2MCI+IDx4bXBNTTpIaXN0b3J5PiA8cmRmOlNl&#10;cT4gPHJkZjpsaSBzdEV2dDphY3Rpb249ImNyZWF0ZWQiIHN0RXZ0Omluc3RhbmNlSUQ9InhtcC5p&#10;aWQ6MGQzMDdjYjAtZmE5ZC04MzRjLThmMDQtZGEyZmRlMGJmYzYwIiBzdEV2dDp3aGVuPSIyMDIy&#10;LTAxLTI3VDAyOjMzOjMzLTAzOjAwIiBzdEV2dDpzb2Z0d2FyZUFnZW50PSJBZG9iZSBQaG90b3No&#10;b3AgMjEuMiAoV2luZG93cykiLz4gPC9yZGY6U2VxPiA8L3htcE1NOkhpc3Rvcnk+IDwvcmRmOkRl&#10;c2NyaXB0aW9uPiA8L3JkZjpSREY+IDwveDp4bXBtZXRhPiA8P3hwYWNrZXQgZW5kPSJyIj8+qE1H&#10;PgAAUMlJREFUeJzt3XWcl1X6//HX0EgIKOja3d0ttpi7rrH2rt2x6nd1w1i7O9ZcXXXtTuzuFbGx&#10;xQJBAaVEmN8f18xPwBnmE/e5r3Pu+/18POaB1LnfwvCZ63PiOg2NjY2IiIiISLm18w4gIiIiIv5U&#10;FIqIiIiIikIRERERUVEoIiIiIqgoFBERERFUFIqIiIgIKgpFREREBBWFIiIiIoKKQhERERFBRaGI&#10;iIiIoKJQRERERIAO3gFERESkJl2B3wB9gJ5AD6Ab8DXwEfC5XzRJkYpCERERH72BubFirgdW2PVs&#10;4fs9W/l+D6DTDMYfDnwx3ce7wBvAJ5n/30jyGhobG70ziIiIFFEHYBVgeWAZYCmsEJy6sPMwBfgU&#10;eBN4DXgZeBYY65RHIqGiUEREJBsdgP7AmsAawArArJ6BqjAGeAF4Gniy6b9VIJSMikIREZHaLQJs&#10;hhWDawB9XdNkZwjwAHA/8Dg2uygFp6JQRESkOqsDA4ANgZUp/v78D4HbgRuBwc5ZJCAVhSIiIm1b&#10;FNge2BpbFm7wjePiZ+Ap4HqsQPzJN45kTUWhiIhIy3oCOwHbAWsDHX3jROUD4BrgSuBb5yySERWF&#10;IiIi01oO2BHYGZjTN0r0vgYuBE5H+w6Tp6JQRETEbvjaHtgLWA/d+FWtx4C/YC1uJFEqCkVEpMy6&#10;ArsAB2AzhFK78cAVwPHA975RpBYqCkVEpIxmxgrB/bFbRSQ77wGHAgO9g0h1VBSKiEiZ9AT2Bg4C&#10;5vONUmiTgEuBo7EZREmAikIRESmDLsCB2AyWZgbz8wo2I/uqdxBpm4pCEREpsgbsJPEx2N3Dkr8f&#10;gX8CZ6Gr86KmolBERIpqHezQw3rOOcTcjO3h1CGUSKkoFBGRoukH/A3YF+jsnEWm9SbwJ9S6Jkrq&#10;wyQiIkXRjl8KjkNQQRijpbFTybt4B5Ff00yhiIgUwfLAediSscRvMrbH8Bi0zzAaKgpFRCRlHYGj&#10;sOKiu3MWqd4twJ7YYRRxpqJQRERStQpwPrCadxCpy2PYPdPDvIOUnfYUiohIahqwe3YfQwVhEWwA&#10;PAEs6x2k7DRTKCIiKVkAuBjY1DuIZO5zYFus4bU40EyhiIikYnvgWVQQFtU8wF3AGs45SktFoYiI&#10;xK4jdiPG9cBvnLNIWHMAdwL9nXOUkpaPRUQkZnMCVwGbeAeRXI0CdgXuc85RKioKRUQkVhthBeHc&#10;3kHExffYvdUPewcpCy0fi4hIjA7B9pepICyv3sANwJreQcpCM4UiIhKTjsBJwJFo4kLMV8AWwOve&#10;QYpORaGIiMSiH/AfYGPvIBKdj4DNgCHeQYpMRaGIiMRgIeBmYAXvIBKtt7DCcKh3kKLS1LyIiHhb&#10;AXgQFYQyY0sBNwI9vIMUlYpCERHxNAA7XbqQdxBJwlrAv7CrDiVjKgpFRMTLdtiS8azeQSQpOwIn&#10;eIcoIu0pFBERD7sAlwHdvINIkiYDewH/ds5RKCoKRUQkbwcA5wKdvINI0n4ANgee8Q5SFCoKRUQk&#10;T/sCFwEdvINIIXwErA187R2kCLSnUERE8nIAcCEqCCU7CwJXoHomE/pDFBGRPOwJnIPdWCKSpc2B&#10;v3qHKAItH4uISGh/Bk5FewglnAnA1sBA7yApU1EoIiKhdAEuAf7kHURK4ROsj+FX3kFSpeVjEREJ&#10;oRtwAyoIJT/zA+d7h0iZikIREclaJ+A6YBvvIFI62wIHe4dIlZaPRUQkSw3AlcAe3kGktEYB/YE3&#10;fGOkRzOFIiKSpdNRQSi+emG9MHXSvUoqCkVEJCt/Ao7wDiGCHTg5zjtEarR8LCIiWVgWeAyYxTuI&#10;SJOJwBbAo95BUqGiUERE6jUz8ASwvHcQkem8A6wOjPEOkgItH4uISL3OQQWhxGkJ4O/eIVKhmUIR&#10;EanHdsBNaJJB4jUeWB940TtI7FQUiohIreYCXmj6ViRmz2BtaqY454ia3tmJiEgtOgCXooJQ0rA2&#10;sL93iNhpplBERGpxGbCvdwiRKgwDVgM+dc4RLc0UiohItY5FBaGkZzbgBO8QMdNMoYiIVGM34Cps&#10;+VgkNZOBrYH7vYPESEWhiIhUagXgEaCPdxCROgwCVgEmOeeIjopCEQmpPbAotmzTs+kD4Eegd9OP&#10;zw7M2fT9CfzyQt0e+B4YDnzV9O17wP/QCUIPfYAngaWdc4hkYR/gCu8QsVFRKCJZaYed8FsNWAZY&#10;EpgXu5w+S8OBwcCbwCvAQ1jxKOE0YL0It/cOIpKRj7CZb910MhUVhSJSjzmBjbH+X+tiRWDexgDP&#10;Ao8D9wJDHDIU3Z+Bs71DiGTsH8BJ3iFioqJQRKrVA7vFYhtgA6CLb5xp/AQ8BtwC3AqM9Y1TCMti&#10;y8a9fGOIZG4EtqrxtXeQWKgoFJFKbYwtH24F9HXOUomvsSXPi7GlIqleF+AJbEuASBGdBxzuHSIW&#10;KgpFZEa6ATsBfwRWx/aWpWYscBv24j/INUl6zgCO8g4hEtCPwMrYIbbSU1EoIi2ZFzgU2BE7HVwE&#10;E4GbgX+imcNKrA0MJK7tASIhXAfs7h0iBioKRWRqvYADsOWUWX2jBDMKuBw4HfjON0q0OgPPYDMo&#10;Uh4TsX8Tk4DuWAupMjQpnwCsBLztHcSbikIRAegKHAYcBMzhGyU3HwP7Y7NhMq3jgOO9Q0hdfgY+&#10;BD4DvsQOVYxu+mhs+nYytnz6HTCy6ddOmGqMbsBvsB6VPbG+ogsAiwALAguRxv7iSvwL2M87hDcV&#10;hSKyIXAmsJxzDg9jscLwP95BIrI08Bx2ylzSMgy7vu0R4Hng88DPawAWB5YH1mj6WBprPJ+aH7CT&#10;9p94B/GkolCkvHoAf8f2DnZ2zuLpJ+zP4UzvIJG4B9jSO4RUZCzWwP0l4GXgYfzbMC2A9S1dE9gE&#10;62WairOBI71DeFJRKFJOa2P76hbzDhKJRuyk7TFN/11WOwE3eIeQGfoSeLTp40Fs2TdWXYCtgd8B&#10;A/jlmstYjcRuYhrmHcSLikKR8tkLe0cc+wu0hyuwfUVlvFu5JzbrtIh3EPmV77Bl4XuaPn7yjVOT&#10;fsC2TR/9ibe91T+xPbWlpKJQpDy6AecAexPvC3IMrsP+jFL8wluP04C/eIeQabyJNWC/imLNXm0A&#10;HAhsAXR0zjK9r7DZwlHOOVyoKBQph7mxq990M0VlbsH6lk1o6xcWxDLY4ZLu3kGEycAD2E08Dztn&#10;CW1lrOPBdlgHhFgcBZzlHcKDikKR4lsCuwd4Ce8gibkb2AHr3VZ09wGbe4couZ+wz7nzsQK9TBbD&#10;lmy3B9o5ZwEYjHVjKF2BpKJQpNhWwArCBbyDJOpm7FaXIr9Q6nCJr/HYv9ELgNecs3jbDDgRe93y&#10;tiX2ZqlUYqjIs9QeWNg7hEgk1gEeQgVhPXYATvYOEVB34B/eIUrsUWBdbKtC2QtCsGXz1bC2MMOd&#10;s+zs/HwXRSoKVwNexY6+i5TdCtjsT1FuG/B0FPB77xCBHI3aEnl4F5uB3gg78S2/mIR1R1gZuMMx&#10;x1bAfI7Pd1GUonB57JNnOeB73ygi7pYAbgfm8g5SEB2wfV7zegfJ2CLYJn/JzyhseXRl7FSxtO5z&#10;7M3YPtiVfHmbCdjN4bmuilAUzob94/pN0/e/cswi4m1+rCCczzlH0cxJ8e4CPgmY2TtEidwLrAQc&#10;i/+tIym5AtgUO/yRt51J88q+mhWhKDyLaZutfuAVRMTZTMC1aDkwlF2A9b1DZGQrirskHpsR2Izs&#10;1sBHzllS9SK2R/oa8j30tQgl+3eSelG4M9NuBv0KFYVSXhdg19dJGB2AQ7xDZKAzcALpv/6n4CHs&#10;DuCLKfYJ9jyMBvbA9vjm2SZqxxyf5S7lF4V5sQ78U9/MMAj9w5NyOhh7wZSwBgBLe4eo02HY/msJ&#10;ZxRwONZiZYhvlMI5G2uj9F1Oz9sYmCOnZ7lLuSg8n19vpPfYcyDibT1+/QZJwugE7Oodog59sKJQ&#10;whmMnSo+D01ShHIHsA3wTQ7PmqnpWaWQalG4J7Y/Y3qDcs4h4q0H9sVnJuccZfI70n7tnN07RIHd&#10;jL1Je9U7SAk8hdUBn+XwrK1yeEYUUnxhmwPbDzO9yegfopTPadi9tZKfhbCZoNR0AP7oHaKgJgB/&#10;w/af5bWsKfAyVoS/FPg562L/7gsvxaLwZKw9xPSGoJNdUi5bYj28JH8DvAPUYGd0/3UInwBbAKeg&#10;5WIPn2B7N+8N+IxOlGQJObWicE1av3pGs4RSJp2AM7HZH8nfSt4BarCXd4ACehnYEHjMO0jJfYcV&#10;bZcHfMYWAceORkpFYQPWCb5jKz+veyOlTHYGFvUOUWLLYvcGp2JT7E21ZOc+bMb4Y+8gAsDPwH7A&#10;uYHGXwNYKtDY0UipKNwN2zvQmkE55RCJwR+9A5Rcd2AV7xBV2AedTs9KI3ARduBI+wfj0ggcgXUn&#10;yVp7SrCEnEpR2A44cAY/PxF4PacsIt76oybVMUild9lywObeIQpiItY8+WBsZkri04i1XbokwNgb&#10;BhgzKqkUhX/ELhBvzcfAmHyiiLjbC836xKCfd4AK7YvtQZX6jMNa+pztHUQqcghwa8ZjrkLLB10L&#10;I4WisAF7UZuRD/MIIhKBBbBlK/E3q3eACvQCtvUOUQCjsXYzN3gHkYpNBv4EDMxwzM7Y/tzCSqEo&#10;3Im29+6oFY2UxS6oUXUsUjj5vTtpFK8x+xYrrO/xDiJVG4vdQPR2hmP2z3Cs6MReFDZQ2QX0X4YO&#10;IhIJzRLGI4U9ZTt5B0jcl8DvgUe9g0jNhmOF4YiMxlsPO3RSSLEXhX+gshN+w0MHEYnA2tihAYnD&#10;ZO8AbdiAtE5Ix+YbrEH8M95BpG6vY4dVJ2Uw1pzYDSeFFHtReECFv05FoZTBZt4BZBojvQO0YVfv&#10;AAkbB+yBuloUyS3AWRmNtX5G40Qn5qJwfSpvtvpNyCAikVAbmrh84R1gBmYHtvYOkahG7B7jB72D&#10;SOaOI5vbZzRT6GAPKmu78TPqKC/FNwdpXq1WZJ97B5iB3bGTx1K9c4HzvENIEJOwFchhdY6zMvbG&#10;q3BiLQrnp/IN9SNQj0IpvjWwdggSh9HAW94hWtGADpjU6kasObUU1xDs1pMpdYzRGVgrmzhxibUo&#10;3IvK227UW/GLpGAR7wAyjdewfWcxWh9YxjtEgh4F9qa+YkHScANwZZ1jFHLlJsaisCvWi61SOmQi&#10;ZaCiMC6vegeYgd97B0jQ88B2xFvoS/aOxN7c1WrFrILEJMaicBdgnip+vYpCKYNC7l9J2NPeAVrR&#10;BR0wqdZbwPbAKOcckq8fsP2FP9T4+1eggFt6YiwKq22j8H2QFCJx6eIdQP6/T4GHvEO04nfYoSSp&#10;zGfADugChLJ6GTi1xt/bB9vrXSixFYWrU3kbmmbjQwQRiYyKwnjcRbyNqzVLWLkRWEH4jncQcXU6&#10;tbcfKty+wtiKwt2pPpP2gEgZTPAOIIC1wPqvd4hW9AUGeIdIxHjs681L3kHE3RTgz9R2DV7h9hXG&#10;VBT2prYN0ioKpQxibpRcJg9gS04x2hbo6R0iAY3AX7G/SxGA97DG1tVaPusg3mIqCncGZq3h92n5&#10;WMpAe57icLF3gBmotLdr2V2JmlPLr12CbQ2pRi01S9RiKgprbbbaPtMUInF61zuA8Cgw0DtEKxak&#10;wFdvZegJ4GDvEBKtQ6nuDXh3rI1eYcRSFK4FrFbj7+2eZRCRSD0OTPQOUWKN2PVnsdoM6OQdInJj&#10;gcPRvyNp3efY1oJKdcL28hZGLEXhrlR2z3FLumUZRCRSn2OFofh4jLj3oG3sHSABFwFveIeQ6F0H&#10;3FvFr58lVBAPMRSFHbF3ubVSUShlUc0LlWSnETjbO8QM9AbW9g4RuSHAKd4hJBl/we43r0ShVitj&#10;KAo3Aeaq4/cXaj1fZAYeQEtfHm4k3mbVYG1oZvYOEbkTgDHeISQZ7wL/qvDX9ggZJG8xFIX1zBIC&#10;jMwkhUj8PgOe8w5RMl9iswYx28g7QOTuxAp7kWqcC3xbwa/rHTpInryLwnbUvxdGrTqkTG71DlAy&#10;xxP3a0x7YAPvEBEbDhzpHUKS9A1wWQW/rk/oIHnyLgo3xlop1ENNfaVMbsTu3pXwbsN62sVsE2Bu&#10;7xAROw742DuEJOsi2l6N1ExhhjbNYIxKpndFimIM1mRVwnoLOMA7RAU29A4QsYeofF+YSEuGA9e3&#10;8WtUFGakgWzu6RybwRgiKbkE+Mg7RIF9i7XJSuENpxpWt2wUdp9to3MOSd8lzPjmNC0fZ2RdYJEM&#10;xvk+gzFEUjKWuK9bS9lEYH9gkHOOSswFLO0dIlJno1uAJBtDmPFebs0UZqTeU8cAk4HvMhhHJDUX&#10;AU96hyiYScBhwO3OOSq1LtbnVaY1CDjTO4QUykXAz638XKF6JRehKJyUwTgiqZkEHIRmyrMyGTiC&#10;yk4bxmJV7wARmoSdNlY/T8nSK8D9rfzcTHkGCc2rKFwZWCKDcdrhf1hGxMvbwD+9QxTAZOBo4ELv&#10;IFVSUfhr/8auJBTJ2vnAlBZ+XEVhBtaj9ruOp9Yuo3FEUnU+cIt3iISNA/YDzvIOUqXZgGW9Q0Rm&#10;JHqTJOE8ATzSwo9r+TgDa2U0Tju0p0bKrRHYg5ZfrGTGvgN2I/5ehC3pD3T2DhGZC1HfWgnrVH69&#10;t7BQV+16FIUzAWtkON4sGY4lkqKxWAuVQc45UvIe1jw/lUMl09PS8bS+Ai7wDiGF9xTW1H5qXTyC&#10;hOJRFG5ItoVczwzHEknVMGB74B3vIAm4DTu5+5p3kDqoKJzW1ejQleTjROwSgWaF6oXpURSuk/F4&#10;3TMeTyRVHwDrY+9m5dfGAydgxfNw5yz16IH2E05tBOrbKfl5Bzh5qu9P9goSgopCkWIZBvwWuM85&#10;R2xeATYCjif9d/arULDN7XX6F/CNdwgplbP45ZT7T55BstYh5+fNCyyX8Zi9Mh5PJHWjgG2B04ED&#10;yf/feUzGYrdbnEJxetfpFpNffIOdwJd0tQOWwj6vFwMWAvo2ffTjl4McjcBo4BNsT/D7Td8+jXUR&#10;yNMUrGvBQIdnB5X3F4tNyP60cK+MxxMpgonY7RxPYV8053ZN4+MR4BjS3jvYkqW8A0TkUtK4o1qm&#10;tQS21WUtYE3sysZK9MIml/pP9WMjscLwKaxIy+t6ww+BnbHVh8LIuyhcO8CYvQKMKVIUd2JF0YXA&#10;Vs5Z8vIucBJwo3eQQJb0DhCJL0mv4XiZLYVtbdkCu8Aiq+1rswC/a/qYjBWINwL/xVYKQnoBODjw&#10;M3KV557CBrLrTzi1XgHGFCmSz4GtgR0o9unkj7GZwZUobkHYHljYO0QkLkInjmPXDdgLa/w8CDu5&#10;uyrhao/22OUYV2AH784DFgn0rGZDAo+fq4bGxtz2XK9AmGWcy4F9A4wrUkQzYXf8Hkpxeny+BFwF&#10;/AeY4JwltKWBwd4hIvApdgJ7TBu/TnzMDxwA7AjM6ZzlR6xl0ZmouXmb8pwpDNVXq1egcUWKaBz2&#10;bn0x4Ehsdi1FU4DHsSWj1bCZgaIXhACLegeIxFWoIIzRcti/xcHY64t3QQjWoeQQbKbyZKylk7Qi&#10;z6JwxUDjzhxoXJEiG4Gdyl0WmzV8kZYve4/NZ9g7/uWBDYC7XNPkT0vHdgL1Gu8QMo1FgMuwPXZ7&#10;EWeruFmAv2IrCwOcs0Qrz6Jw5UDjzhRoXJEy+BG7Hmx1bIvH8dgL+yTHTNMbgS0N74B98fk/yruE&#10;Or93gAjcjh0yEX+zYVu4BmHbuFK48m1x4G7sda+Xb5T45LWncG7gI7JvRwPwP8LNQoqU1fzApth1&#10;cCsDC+T47MlY0fcs8AzwIFa8CjxAuWc5pmAHFl/wDiL8FlttyPO1IWuDgN2AN51zRCOvonBHwp0G&#10;fA+r/EUknOWwfcFLYvvaFsPe7DVUMcYkrKdc87VQU7AeY99iTYg/AN7GDqQNzSJ0Ab1JufsUPgZs&#10;6B2i5HpgLZ8OxE77pm4Y9v9yu3eQGOTVp3ClgGPruieR8AY1fUxtdmA+rPFsX6Aztp1jJuye4YnY&#10;4Y+RWJH3DvBdHmELqj2VN/ktquu8A5TcRlgz/CJNxMwG3IDNeJ7pnMVdEYpC7SkU8fENunM2TwtR&#10;7j1QHwI3eYcoqZmwrgUHAZ2cs4TQGbsWtBsFu6GkWnkUhd3I/r7j6cfvRMEupRYRmc5vvAM4uw29&#10;zntYA7s5ZgXvIIE1AMc2/ffxjjlc5XH6eC2gZ8DxuwC9A44vIhKDojQbr8UUrCiU/DRgje4HUvyC&#10;sFlzYXhsW7+wqPIoCpfP4RnL5vAMERFPs3oHcPQKYW7EkpbNgu3fPIvy7dtvAI4D9vYO4iGPojCP&#10;k3LL5fAMERFPfb0DOLrbO0CJrIm1gtrFO4ijdsA5QH/nHLnLoyhcIodn5DEbKSLiqay3N/0E3OEd&#10;ogSmXi4u0uniWnUHrgTm9Q6Sp9BFYQ/yuatzuRyeISLiqWzLeM2eAt73DlFws2F9+s5CHT2mtiB2&#10;l3Oet7+5Cn36eBXy+QRbEOgHDM/hWSKSry7YG7++2F6nPlhrlu7YXcifYI2v3yeN+5trVdaiUEvH&#10;Ya2LFT66V7tlGwF/w1ryFF7oonDJwOM364gtIT+c0/NEJIwOwPrYXuQlm75dHFt1aMsI7DrNj4B3&#10;gSHYDSnvALlc3RRYd+8ADiYCd3mHKLB9sdnBMn5uVeMY4Ans6s1CC10U5rGfsNliqCgUSVFPYAvs&#10;HflGwJw1jjNr08eq0/34MOwu5VeAl4FHgHE1PsNTGWcKXwa+9A5RQB2xe4sPorqrKsuqK3AJsDYw&#10;2jlLUEUqChfJ8VkiUp/2wDbAH7CZwV4BnzUbvxScYNfuPQ7cD9yCXcmXgtLsa5rKk94BCqgf8B9g&#10;Y+8giVkauwZvH+8gIYV8kWlPvkXhAjk+S0Rq0wM74fgWVpBtQ/5Xt80CbAf8G7s67RzsDufYtfcO&#10;4OAJ7wAFszg2U66CsDZ7Yq8dhdXQ2Bhsq82qwIuhBm/BEPI56Swi1esCHIwtV83jnKUlo4FrgEux&#10;15IYPUG5+qYNxYr1Ih8eytM6wPXA3N5BEjcEWBkY4x0khJAzhXkdMmk2L+Xt4yUSsx2AV4EziLMg&#10;BHvtOAx4A7gV2Ir49lrFlie0J1BBmJUdgXtRQZiFRYC/e4cIJWRRmPcev87Ymr+IxGFu4L9NH3m/&#10;SaxVF2BbrA3Kc9jsSizKdvfxk94BCuIAbBa8p3eQAjmQgl6aEbIonD/g2K3RvkKROGwNPI8dJEl1&#10;hmt1bP/VxdjmfE99KVcfuUnYzRpSn78CF2CTJpKdmYDTSfe1rVUhi8IFA44d0zNF5BcNwEnYEuxc&#10;zlmy0AmbaXkWWM0xx7KU6wv7O6gVTT0asP6DJ1HOA0p52Ag7eFIooVrStMdnpnAhh2dK7Rqw/pIL&#10;YP3lOmMzBD2wprVjsFtq3ge+cMoolesKXIXtXyqahYEHgMOBax2e39fhmZ5e8Q6QsAasB+Hh3kFK&#10;4BjgJuBH7yBZCVUULo5dRZW3Mi2vpGgZYANsf9miWBE/ewW/bwpWHH4HjMJurhiGFYpDsdNgL2MF&#10;pfjogbWY2dQ7SEC9gSuxpeQzHZ5dJv/zDpCoBuA84BDnHGWxALaScIZ3kKyEKgq9irNFsU7tKg7i&#10;0AW7qaI/dr/mktS2B6MdVjzOqIAchfW+ewu72uwt4AVsxlHC6oYdJilyQdisA3AqdiPKxTk+t2OO&#10;z4rBS94BEtQ8Q6iCMF8HY3dHf+8dJAuhikKvZdyewHJo6cHb8tgBgx2wVkF56AWs1fTRbCT2xeU5&#10;4CE0+xBCO+A6YHPvIDlqjzW8HoPdDJGHItzdXKmhwOveIRLTFXuT8ifvICU0F7ZUf6x3kCyEOmji&#10;sZ+wWZ63qMgvOgF7A89gPen+j/wKwtbMAmwGnIwtL7+OLa0MoJxXhoVwBnYrSdl0whpdr9XWL8xI&#10;KlfxZeE1ylUE16svcA8qCD3tD/zGO0QWQn1h9DwFrDuQ89UVKwZfBS7HvkjGWHC1x2aRD8UODLwL&#10;nA+s6ZgpdTtR7s3s3YB/YYekQivE0lSFNKNfudmxnpobegcpuVmBP3uHyEKoL96e/QIXc3x2mcwE&#10;HA28hxWDqTUOXwTbe/M0dh3jX4j3to0YzY/16YrxDUCelgAuzOE5I3J4Rize9g6QiFmBO7F+muJv&#10;d/J5gxhUiBf03vh+cdX9x2G1w3ozvY5tuE+9kGqH3dN9GvbF6DrKdb9src6lGH0Is/AHYOfAz3iL&#10;chygawQGe4dIQPNpf8/emTKtvsA+3iHq1dDYmPnWjdWwU59efsJmMb5yzFBUA4B/UPx3po3YbRzX&#10;ATcAY33jRGcH7LRx4br51+FjYEXsFHzIZ3ju187DF+h+3rZ0wnrj/c47iPzKx1iXjQneQWoVYqZw&#10;zgBjVqMTsLZzhqKZG2vYey/FLwjBip01sf1i7wIn4H/NWSw6YqfsVBBOawFsC0JIHwUePwbveQeI&#10;XHvsHmMVhHFaANjNO0Q9ilgUAqzkHaAgGrATbS9gn+hlvC5pbqwIaj6YUvSZmrbsik74t+ZAwn5+&#10;fBJw7Fi87x0gYg3AJdgBL4nXAST8pjlEUThHgDGrtbJ3gAJYAXgCuJo4Cn1vfbCDKa9jBwvKesp9&#10;L+8AEetB2MbBZZhFU1HYutMpwJ61ElgW2NI7RK1CFIUx9OpZlThypKgjcDzwFHYLiUxrZuAgrG3G&#10;Rfj3YszTamhje1t2J9ybqDIcwFBR2LK/A0d6h5CKJTubG6IojOFEYhfKdcNCVubEel4dB3R3zhK7&#10;bthy4VtYcRjD531o25LwskhOegP7Bhr7BeDHQGPHYDLlKHyr9Q9sX7P+7aVjCxLtzFHUmUJQM89q&#10;bYRdBzfAO0hiumPF4f+wF+4+vnGCWsc7QCJ2IMz+27HAOwHGjcUw4BvvEBFpB5yJva6UvR9oarqR&#10;6IGTrD/R2hPP/rP1sJPI0rZdgDso11Jo1vpiB1Jex/aVdfSNk7l5sRthpG2LYNcrhvBmoHFj8Ll3&#10;gIh0xdphHYlmCFO1Awn+3WVdFC4E9Mx4zFr1Q02IK/F/wFVouTgr82CnlF8lfEPjPG1E8QrdkLYL&#10;NG6R29IM9Q4QiS5YQfgH7yBSl6WwZeSkZF0UxjbTpOWu1jVgyxKnohnVEJYBrgeeAdZ3zpKFNbwD&#10;JCbUzUpFbkujotBmCNWYuji29Q5QrayLwtkzHq9ea3kHiFRn4N/Ycqf2qoS1FvAQcDZ2X3SqlvIO&#10;kJgegcZVUVhcXYEbga29g0hmNsc6ViQj64Kgb8bj1WsVdBPF9LpgV5QluQk2UR2BPwPPkuaNMJ3R&#10;neLVClUUDqa4J5DLXBS2w7bx/NY5h2RrFhKb9c26KOyd8Xj16orthRIzE1qa8LQ88AjWcyyl22FW&#10;JJ69wqnoQZhN5uMp7gnkMheFFwE7eoeQILbyDlCNrIvCWTMeLwsqCk13bIZQSxO+ugEnAo9hF6en&#10;QLOE1etOuNnCtwON62kKxV4an5ETgP29Q0gwmxBPq742ZV0UzpLxeFnYBFv+KrOewK0k9o6l4NbF&#10;bo05zDlHJRbwDpCg9sBsgcYuYlE4GhjhHcLBgdjKgRTXTCR04CTrojDGxr2zAxt7h3DUD7ulZFPv&#10;IPIrswDnArcTT3/PlsztHSBRobbTvB5oXE8jgUbvEDnbGmtOrcN+xReqb2nmyjBTCDZbWEbzAPej&#10;fo2x2wa7wixUb7t6JXldUwRCLR8/S/Fm1Yr2/9OWFYArsH3vUnzrksgSclmKwgGktbE/C4sBDwIr&#10;eQeRisyNtaM4HejgnGV6ZbjXOYRQReFP2LWKRTLSO0CO5gduIb5uHRJOV6w9TfSyLAo7Em9RuADl&#10;Ouq/HDZDuIRzDqlOB+yGmYeIa8lWt93UJlRRCPBiwLE9lKUo7I0d+FvQO4jkLoltbFkWhfMQ91T4&#10;rt4BcrI8VhDqcEC6NgAeBlbzDtLkW+8AieoWcOxnA47toQxFYQesF+Gq3kHExYYk0Nory6Iw1Em7&#10;rGyKXVRfZPNg70Ln8A4idVscmzHcxTsIMMw7QKJCzrA+DnwRcPy8jfMOkIMLUI/YMutNAucbsiwK&#10;Yzx5PLXOwO7eIQLqBdyMesoVyczYzMKBzjmGOz8/VSFnCicDTwYcP2/Rz6DU6W+oF6HYbGHUsiwK&#10;U9h3tBNhX6i9dASuJZ7lRslOJ+B8bK+hFxWFtQn9mvhY4PHzlNT9sFXaG2tQLbKud4C2ZFkUhtxU&#10;nZX5gH29QwRwAWpMXWTtgVOAA5yer+Xj2oQuCu8GRgV+Rl6KWhQOwHqRlq37hbRsUSLvCJJlUZjK&#10;DNyBpDGrWaljgf28Q0hw7YFzsNnuvH3q8MwiCP2a+D3FmS0sYlG4OnAd6XxtlHys7x1gRsq2fAx2&#10;KvdI7xAZORgrCiUbo7D+b88BrxJfQ93OwKXk/6LyBuW7bSILeayePJDDM/JQtKJwSawX4azeQSQ6&#10;63kHmJEyFoUAhwILe4eo097A2WhZol4fACdjbWD6AisCawErY73EzgQmuaX7tZ7Y7MOSOT7zPeDL&#10;HJ9XFL1yeMZtFGPPZ5GKwt8AN6Gm79KyNcnntaEmZVw+BvsL+ad3iDrsAlyIHTCR6k0B7sOul1sM&#10;u5D+ceDn6X7dGOyAx4HYac9YzIl90Zk9x2e+neOziiLU3cdTGwPcm8NzQivK6eNZsbvMl/IOItHq&#10;AazjHaI1ZZ0pBNieRK6dmc62wL+wpUSp3gPARsCWwJ1YgdiWK4CzQoaqwVLYtXh5vRl7J6fnFEle&#10;bbpuyek5IfUk7ssPKjEL9nexuncQiV60rePKXBS2A04kreJqC+AaYCbvIAkaDRyEvRF4vIbffzww&#10;JMtAGVgPK1izvsO8JZoprF4f8rnH+hHSvwu5EzYDnqpZsDeZUe8Xk2ioKIzU8sAh3iEqNAD4D2n+&#10;OXt7DXuxvriOMSbU+ftD2RF7cxPak8S1hJ6CbsD8OTynEbgyh+eENot3gBr1xZaM1/YOIsmI9na1&#10;sheFYCeRY98QvC12W0kv5xwpugroD7yewVg3AWMzGCdrRwG/DfyMj4DBgZ9RRHPn9JxrSb91UIqH&#10;TebF9idH35RYohJtzZFlUZjHMkkI/YDjvEPMwB+xF/wUmoPHZBxwOLAX8GNGYw4Hns5orCx1xA4e&#10;hZ6Veibw+EWU1z3k47BT6SlLrShcHlu6X8U7iCRnDiKdSMuyKPwuw7Hy9ifivKj8L9ihEu0hrM7n&#10;wNbAeQHGfinAmFmYC1tCDHkiXUVh9fIqCgEux/bOpiqlE8jrAPeTfmsz8dEZ63wRnSyLwtga/Vaj&#10;PVZAxDKl2wFrUnwqtgFbKjcIO138aKDx3wg0bhbWB04KOP6jwA8Bxy+ivJaPwXpJ3pTj87KWSlG4&#10;BHAD1o9QpFZ5dSeoimYKfzEPVoh5F2HNfa72Axqcs6TmYWBjwp4SfpG4mllP73DC7S8cBTwfaOyi&#10;ynsm6RLgp5yfmZUUisIFgbuIZwJB0tXLO0BLsiwKR2Y4lpctgKvxa1OzMnbKcyun56fsWqwY+jbw&#10;c74B3g/8jHp0BC4i3AzVfYHGLaqFcn7eYOyWkxTFXhTOCvwXLRlLNqLcQ6vl41/bGXsn2C/n5+4N&#10;DCTf68uK4jxsX+iEnJ4Xe0+4OYEzAo19K3GewI7VPMBsOT/zZNL8O4q5KOyGLc2v7B1ECqOXd4CW&#10;aPm4ZZti+6eWyeFZ/YDrsQMlvXJ4XpFMwU6OH471asvLqzk+q1Y7YLf2ZG0Y4fZrFlFHYLmcn/kO&#10;tuKRmjyuBaxFB+zPcwPvIFIovbwDtCTLonBMhmPFYGlsKfcIwt0YsTXwAjY7qf2D1ZmM9Zj0uMP6&#10;GSq7Hs9TA3ZQqW+Ase8JMGaRreDwzNMJv5Uia7E2r76AMG+wpNx6eQdoSZbFTorLFW3pjd15+zJW&#10;uGXx57UgVsw8iR0oWSCDMctmMvB/wLlOzx8EvOL07GosQJjbTm4Hvg8wblGt6PDML7G9pSmZ1TtA&#10;C04D9vcOIYUUZe/hLIvCrBoEx2hFbIn3beBYqn+Rnx/4M/AYtrRzJtYBv32GGctiCnAMcI5zjoHO&#10;z6/UnsAmGY85Grg74zGLbEV8VgLOAz5xeG6tYpspPAPrFSvZ+5LirS5WK8rm1Q2NjZltxVoAuwqr&#10;DBqxAvFR4DmsTcdXU/38zNj+k7WANbHO9yGbCpdFc0EY6hBFNQ4gzruQW/ImsBp260VW+gOPo20P&#10;lWjElpAHOTw7pc/Tn7DVmSw/T2t1CvZaI9kYjbXzeg67FepZ7GviGsCy2L+P/pSr1c9Asn/DXrcs&#10;i8LuWB+zMs5+TcLalLyB7eFajbhP0qVoCvAP7MU6Bttj91Gn4hhsKSxLz2JveqRtR+Azu92AffHZ&#10;0OHZtVgKe8Pt6UTgb+gNT70+x259GYitkrXV+L499nm6IdYeLsobPzL0HDZxFJUsi8J2WFEY5Tq5&#10;JK0ROB6fQyWt2YC0TuF+g52CHZbhmPthDd+lbffi1390GexwVApvVPcHLnN8/nFNHyoIa/Ml8ADW&#10;z/R+bP93LdoBv8c+H9bLJlp0BmGriFHJck/hFHQFloRxMnEVhJBeX87ZsQNOWboB+DrjMYtqbfya&#10;1Q7G9jGnYEvHZ/8DFYS1+gLYA9tGtg/WoaDWghCsnrgVu7pzO+K+MKBW3bwDtCTrVispX8YucboU&#10;e7GOzWfAz94hqrQfsEiG4/2AFYbStl7YFYxeTgdecnx+pdYEZsr5mQ3A2cAJqCCsxR3Y3sBrCHPF&#10;4m3A6sB1Acb2FOVBk6yLwlEZjyfldjtwiHeIVowivTdB3YGjMx7zQtL7c/CymeOzJ2EdEMY7ZqjE&#10;zNisal66YMXGn1FBWK3R2EGm3wNDAz/re2B3bIIg5rvnq9EH+/yLiopCidWT2NV1Mc/GpVgM7Yy9&#10;687K59h9sNK2LfHdc/08afQuzKuvYx9slmuXnJ5XJO9gN3/lvaf4JOzrQhH6IncG5vMOMT0VhRKj&#10;17Fr2mLfo5pin61O2KxIls4ljjYisZsFu8XI0/HYLUoxWzaHZ8yDHYQYkMOziuYu7PDHi07PvwHY&#10;lzBL1Xnr5x1geioKJTafAn8AhjvnqESKRSFYYZLlqbchpNWex5N3UTgOOxCQ5Sn0rIW+c35x7ITs&#10;aoGfUzSN2Mnw7fF/fb4BvxutshTiGtK6qCiUmHwJbIsVGSlItSjsiN10kqULgIkZj1lEA7BZKk/v&#10;YbPF9ZwODWlhwv0ZbQg8AiwZaPyimoj12tyfePb0HYdtiUhZH+8A08u6KPwm4/GkPN7HNuK/5h2k&#10;CinuKWy2M9amJiuD0N7CSnTDNsx7uxG4xDtEK9oTpqnvIdj1jHMGGLvIfgB2I76ZuYnYQZfYtxnN&#10;SGxXO2ZeFIY+gSTF9CJ23c9g7yBVSnWmEKxFyt4Zj3kqab9A52Un4rj56SjsVpoYrZ/hWF2Bf2F3&#10;Qefd7iZ1o7DP11ucc7TmDdK5xrElMbwOTCProvCLjMeT4nsImyH8zDtIDVKeKQQ7xZdlS4QhwNUZ&#10;jldUi+G/txBspmUv4txfuAnZNPddGrujex/UcqZaw4FtsNtJYnY68LF3iBr96B1gelkXhW+imQKp&#10;3INYt/rvvYPUKPWicH5g14zHPB34NuMxiyjrPZ21eh87eBLb6fG5sBOm9dgDeAIdKKnFSOxAyRPe&#10;QSowCrv1KkWFLwonUMzraCR7D2IvOtH9o6hC6kUh2F6hLH2N7kOuxKaE2TdXiweAw4nv4MnB1Lb/&#10;bzHgP8CVRLhnKwGjsSXjp7yDVOEabEY4NdFNomVdFIKdbBOZkYexPoQpF4RQjKJwDbJvFnw28FHG&#10;YxZNO+BA7xBTuRw4zTvEdObDbhvpWuGvXwYrBP+HNaTWcnH1fsTeKA70DlKlRuAYbGIqJdE14Q5R&#10;FL4eYEwpjheBHYnwHVINilAUtsP6QmZpDHBKxmMW0W+JqzXKP4BrvUNMZ33gTmDeVn6+N7YUPxDr&#10;XLAnlReRMq1x2J/fPd5BavQycIV3iCpFNzHS0NjYmPWYy2KFod6lyfTexTaQF+WU+lrAM94hMvAx&#10;sAjZLh82AI+S7SnSIrqaePYXgh08ugfYyDvIdEZgN5AMx2aFZsE+Z1cgmwMpZTcR60bwH+8gdeqH&#10;zRSn0nZoJSJrwxaiKAR4i7jeAYu/r4DNsX52RbEk9rleBAOwk+BZWh3bqN4543GLZAK2hB/TCks/&#10;bM/vCt5BJBdTgIMozl7gQ4DzvUNUaEEiOzkdYvkY0tqgKuF9j21cHuScI2tfEt/m/FptGWDMF4hv&#10;OTI2XbB+gTEZDvweeMc7iOTiFIpTEIJdxfeud4gK/EyE7aBUFEpo47EeYUX8nBhNhHtCarQFYRqp&#10;HkeaPSjztC02qxqTT7G9pvq7K7Z/A8d6h8jYT6RR5I4lvlZQwYrCgRTjIIHUZzLW6uI27yCBNFKM&#10;wyZgd82G2P/3DXAkxZlRDaEjcALx7cN+E3uzkMpd5FKdh4D9sNexorka27IUsx+J8M8+VFE4imJs&#10;wJf6nIhdL1Vko7wDZGjdQOPehvURk9ZthN1HHZu3sP2mMe15lPq9hjWun+gdJJCxwM3eIdoQ5aUN&#10;oYpCgEcCji3xuwqb/Si6Dt4BMtQ/4NhHox6mbTkW6OEdogUfAxsCt3oHkUx8irUFG+GcI7R/Y/v2&#10;YhXln3/IovA+YFLA8SVeDxFXY96QinRjwsrA3IHGHoltJSjqzEQWFgb+7B2iFd9hDeePxfZsSZo+&#10;xPpjfuCcIw+DgSe9Q8zASO8ALQlZFH6INSqWcnkD2J1yfPHvAfTxDpGhToRbQgZ7s3BOwPGL4Ahg&#10;Oe8QrWjEtoT8gQhPTUqb3sC2ArzhHSRHN3oHmIHvvAO0JGRRCFpCLpvPsPuMh3sHycn82CGBIlkl&#10;8PjHYU2tpWU9gFOJ79DJ1O7EDiU97x1EKvY8sBk2WVMmtxPp3j1KWhQ+QISnaySI77H7Rst0UnFW&#10;7wABrBx4/EnA/tipZGnZptjtEjF7B9uD+jcibKsh03gE60Ma+2ncEMYAj3uHaEXp9hSCnXAaFPgZ&#10;4m8isC/wrHeQnBVpP2GzZYFegZ/xIXAocW8C93Ys4fZ3ZmUS1vh4c4pzs0/R3IXtIYxyVionD3sH&#10;aEWUfyehi0KAu3N4hviZAvwf5TyZWMSisCvhl5ABbgHOzeE5qZoTOM87RIWexJpvX4L6Ucbkduwm&#10;qbLP5N5DnH8GpTto0uw2NCNQZCcCF3iHcFLE5WPI797yo4H7c3pWirbBltpT8CPWcWBbrOWJ+Pov&#10;VhCO9w4SgWHE2Te5tEXh29gdqFI8FwLHe4dwFPvyXq3yKgqnAHuh/oUzciKwqHeIKtyFzTRfh/aT&#10;e7kJ6wCh1kG/iPGa1Sj3VedRFIKWkIvoOuAw7xDO5vIOEMgiOT7rG2BPinUzTJZmAS4DOnsHqcK3&#10;WFGyT9N/S36uxA78qUfwtGIrCicAQ71DtCSvovBm7A9BiuE2bIZnincQZ/N4Bwhk/pyf9zxWGJah&#10;t2Ut+gMne4eowZXAmthSprYQhTUF+xzZB+3rbMkLwCfeIabyDZG+3uVVFH4BDMzpWRJW816Vsr8T&#10;bY8dBiiiOch/afwObKlUWnYY9u8uNR9gudfDmpdL9iZitwX9HS3Zt6aRuLpjfOkdoDV5FYVg+xwk&#10;bTdgy0JlLwgBFgJ6e4cIpB2whMNzTwb+5fDcFLTHTiN7/L1k4VnsNo0tsVZlko3RwJ8o72G/aqgo&#10;rECeReGtlOO+xSJqBC4CdkUFYbP5vAME5lV8HIrdmy6/1he4HGsblKr7sCXlw4hrOS9FQ4HfYas3&#10;0raHiWfJ9mvvAK3Jsyj8mXL2skvdZOBI4GC0NDG1ou4nbLaU03MnYsuNTzo9P3ZrAmd4h6jTROB8&#10;7I7nI4HPXdOk6XHsnvInvIMk5DPgZe8QTTRT2OQ64qnUpW0/YzM353gHidAC3gECW9bx2T9g/e5e&#10;cswQswOwbRypGwOcDawAnESkfdsiMwE4HbsKUTOt1XvMO0ATzRQ2eR8dOElFI/AP4GLvIJFazDtA&#10;YEvgu2dyJLAduj6tJe2w22DW8A6SkZHYa83SWMGjNjYtew3YGGv6rm08tYmlKNRM4VT+7fBMqd5p&#10;TR/Ssjx7+XnoCqzonGEo8HvgXeccMeoN3IgdeCqKr7GCZyngBCL+wpmz0dglAWsR580cKXke+Mo7&#10;BBHP8noUhXcCrzo8Vyp3KfBX7xAR6wMs6B0iBzH8Pw4BfosKw5bMC1wP9HLOkbXhWBG0JLbn8EPX&#10;NL6eANbBimT1+q3fFPzrj5FEvI/WoyhsxJqaSpxuBA7yDhG5FUnrhola5d3EujVDgC2Awd5BIrQq&#10;tvrS3jlHCKOxPYfLYM3Nn6Y8h93eBXYE1kef91l7xfn5XxPxxQ8eRSHANag9TYzuwnpeRfsJG4mU&#10;7qKtRwwzhc0+xtpv6Avkr20NnOkdIqDxwNXYadv+wLXYYaQi+gpbQl8R9fYNZZDz86PeFuFVFP6E&#10;FYYSj4FYH0Jdot42FYU+PgY2Qm04WnIY8GfvEDl4GvgjdhDqWPy/wGeleVZ0eeywzXjfOIX2Or5X&#10;AUa7nxD8ikKAK9Aps1g8DvwB+NE7SCIW9w6Qk9m8A7RgOLbH8C7fGNFpwNq6bOUdJCdfYNciLg+s&#10;jPVujPqLbStGYreRLI/tnxzuG6cUvsR3T9/Hjs9uk2dROAJdaRWDB4FtgO+9gySiE9Z0twx6Y/+/&#10;sRkDbI/dsiO/6Ir1gt3QO0jOXgX+AiyMvZZdS8Qb+Zt8irXhWQzrBZtiQZuy9xyfHfXfdUNjo+u+&#10;3T7YHqE5PUOU2NVYI1w1FK9cf8q1fDk7MMw7RCsagCOAf5L21W9ZG4HNGL7gHcRRO6yP4zrYLTDr&#10;AN1dE9np4ceBm7H9gtqq4+dcbMuFh2WAN52e3aYOzs//DrgQ9cPLWyO2b+UY7yAJWsk7QM68XyNm&#10;pBE4C3vXfxl6c9lsVuw+3C2J+ItPYFOAZ5s+wN7cbITN8i+J9ULM4/NlLFacP4YVgp/m8Exp2/tO&#10;zx1F5O21vGcKAbphm4WL1IQ1Zo3AqcDfvIMk6r/Y/suymIOIr2SayjJYa5blnXPE5D2sMCxzn78Z&#10;WQL7fFkKa780F1Yozg50qXHMH7DOGq8AT2EH+HR9X3z647Pi8z/8LwWYoRiKQrAlTF2nFl4jNiur&#10;xtS1G4LtXSqDH7AtHj97B6lQ8y0fm3oHicjrwGbAN95BEtIJKxD7AX2B+Zq+3xvo2fTzY7BZ9FHY&#10;itcHTR+voSvoUtATO9STd7/ZW7H90NGKpSjsCLyE3uWHNAU7nXicd5CELQq8g+8BrTx9SjwNrCvV&#10;FfgPdj2emBewPYYjvIOIROQ98m8vdjrWhzJasXxxm4QtZ3r2DiqyScBRqCCs1+rE828mD1GfkmvF&#10;eGAXbMZQzOrYfraZvYOIRMSjNcxHDs+sSkxf4B5EL+QhTMROWZ3jnKMI1vAOkLO3vQPUaAJWGP4N&#10;LeU12wC7d763dxCRSHgUhVH3KIS4ikKAv6PmnVkaBewEXOKcowgagPW8Q+TsC+8AdWgETsGKQzXJ&#10;N+sBt6HCUATyP4A1iQTeaMdWFH6OdaaX+n0ObAHc4R2kIFanfCfki7Cd4xasT93j3kEisT72mtDH&#10;O4iIs7y3x3xEAge+YisKAc6j3E1Xs/Aa1pPrOe8gBVK2WUKww0lF8AF2IvlEdKcsWDsOzRhK2eXd&#10;qzD6WUKIsyicDByMHfmX6j2AfQEc4h2kYMpYFBZhprDZJOBY7GYLvem0z+c70YyhlNcQ8j2Rr6Kw&#10;Dq8Bx3uHSMwU4Hzgt6j1RNb6YcvHZVOUmcKpvQqsi93mU/amwusCt6NTyVJOU7BVhLyoKKzTecDd&#10;3iESMRZrAH4YOm0ZwibATN4hHIzzDhDIJKyJ+4rAtRRrRrRa/YEbqP0GD5GUvZfTcxqxRvLRi7ko&#10;bMSWkYd6B4ncx9iNBf/yDlJgG3sHcDLWO0BgnwF/BAZg15KV1ebA1cT99UAkhLz2FQ4l31nJmsX+&#10;IjAUm/0q8zv5GRmIvdN/2jlHkfWkvNemFb0obPYIdkL5YOAr5yxedsRWZ0TK5N2cnvNOTs+pW+xF&#10;IVj7BDVentYE4GSsWNFMali/B2b1DuHkR+8AOZoEXASsDFwA/OQbx8XB2J9Bg3cQkZy8jF3wENpb&#10;OTwjEykUhQB/Be71DhGJD7Hlnr9jS+wS1lbeARz94B3AwVfAodgNIGVs6XQgcDnpfG0Qqcc35DNb&#10;mMQhE0jnH/7PwJ7AYO8gzu7ElovViDcfs2H9HstoCvCpdwhHz2Lta/YAvnTOkre9gP8AHb2DiOQg&#10;jwMgb+bwjEykUhSCXVW1O2lfvVWrccDR2FJm2b5AedoB6OYdwsn3qGXLFOAabEn5Iop7GrslO2GF&#10;YVk//6U8Qi/tDgMGBX5GZlIqCsH+YLehXIXR29jp4tPRcnHetvQO4GgE+nxr9jW23255rIXNz75x&#10;crMD8CAwh3cQkYBCb5N5hYQOy6ZWFIL9AZehMPwZuAQ7FfmUc5YyWhJbPiwrNUD/tSFYC5sNsJuD&#10;ymBt4DFgGe8gIoGE7rLwWuDxM5ViUQh2YmgbrEdfEX0MbItt+h7tnKWs9gI6eYdwVNbWLJV4Gjvs&#10;9Xtsf2/RZ1QXAx6mvPtrpdhCbwtRUZiTl4H1gSe8g2SoEbgJmx3UbS5+egF/8A7hrIx7d6t1BzZr&#10;uDG2zFrk4nB27KDbH51ziGQtZFE4Dngm4PiZS7koBLuRYHPgCu8gGRiOzU7tiB2TFz+7Y18Ey0xF&#10;YeUexfb9boYtKxd1z2E3rF3NX72DiGQoZFH4OjAq4PiZS70oBBgP7INtBE9xH9QU7FL6lbGrpsRX&#10;A7Cbd4gIqCis3kPYm9TVsOJplGuaMDpijfMvQy1rpBhC7il8NeDYQRShKGx2EbbsmsoG8EZsn87G&#10;2P7Bz33jSJMtgBW8Q0TgM+8ACXsN2Bfbi3ckdkClaPYF7qG8t/1IcYTct/+/gGMH0dDYWLhtMA3A&#10;/sAxwFzOWVoyGSsGL8RmFiQut2OHmMrsB6Av+Vz/VAYdsSspd8RuyClS77/Xsf23RSx8pRy6YIVh&#10;1gcLp2BvDD/IeNygilgUNuuNXVe1P9DPOQvYMvcdwMXAC85ZpGXLAi8Bnb2DOBuE9eST7M0D7Axs&#10;R3H+jD8HdiGxDfUiUxmOvRHO0rvAEhmPGVyRlo+n9z1wPPaF/gysAa2HIcAJWN+7XVBBGLOjUEEI&#10;ib2zTcznwKnYFoX1gLPJ5+7VkObBlpLLPsMu6RoVYMzk9hNCHEVhe8Lm+Ab4C7AwsDfWwmZKwOc1&#10;P/Nq7EVyCaw4/STwM6U+K2KzNwIfegcoiSexPYdLAusCZ2I3GKWoF3A9ttdQJDWjAoz5fIAxg4th&#10;+Xgx4ADgkByfuRJ2oKA/sCq2p6Aek4HBwHNYY9v7sOViScfNwPbeISKxK/YFXnwsifU/3AhYCyu4&#10;UjEZOAl7IyySioFk25x9MjYhlNxe2xiKwjWxvSh/wd4p5212bBP4CsCiWJE6N3ZgpSU/YLc9DAHe&#10;afp4luLerlIGq2PFfAfvIJFYinRnrIpmZqxDwTrYG9ilqf9NbB7OBY6g2A29pThuIduVolexNnPJ&#10;ieGLYG+sADsJeJP8T+R+A/y76aPZglhx2H6qH/sW25c4lIQut5aKHEUc/xZi8CX2RkfiMBq4tekD&#10;rAXMOtghlVWavs16g3wWDsdePw9DhaHEb1TG4yV76CqGL4TN73o7ARdgjV+/84sDwEdNH1J8awFb&#10;eoeIyGD0RTxmI7AuBnc0fb8dsAw2u7sEttqxOLAQ/s2lD8G+xhyEPqckbj9kPJ6KwjpMfchkYeAU&#10;YD+nLFI+RxDHv4NYDPYOIFWZgrUQGjTdj8+KdV5YFCsQF8FeX+cn32LxAGwl6IAcnylSrSyvuhsN&#10;PJLheLmK4Yth++m+/ydsKffF/KNIyayKHTiSX7zkHUAyMQJ4rOljatMXi/NjLWXmIdztJPs35Tk2&#10;0Pgi9cqyKHwO+DHD8XIVQ1E4abrvdwKOAwY4ZJFy0SzhtMYBT3mHkKBaKxYBFsAKxXmAefmlWJwL&#10;mA3oUcdz/4od0LusjjFEQsny/uOnMxwrdzF8QWzpL2MT7Dqoe3LOIuWxPmq2O73/4b+fV/x8TOtd&#10;FNphBeJvmj5mwQrFWbEbo/oBfbAr/GbCCsge/LI9qD1wDjAMuDNMfJGa/ZzhWE9kOFbuYigKW+rn&#10;14BtUlZRKCE0AP/g11sXyu5l7wASrSnAp00fleqOnYyeGejZ9KEDJxKjrC60+BB4JaOxXMRQFLY2&#10;bbs+NmP4cI5ZpBwOwhqXy7S0j1ey9CMJ762SUsmqzdyTJP7GJ4Zr7lo7Ct4AHJhnECmFOYFjvENE&#10;aAKJ74UREXGWd5/lzMVQFI6g9cp6AHZCVCQrp2B7omRab2D7vUREyqZbBmMMB+7PYBxXMRSF39H6&#10;EkMH1N9KsrMZsLN3iEipFY2IlNVMGYzxELbikrQYisIpzPjE43ZY41WRevQEzkCHS1qjpWMRKass&#10;isIHMhjDXQxFIcy4KOyK9hZK/U4AlvQOEamRFGAvjIhIjfrU+fu/Ax7MIoi3WIrC79v4+Z2B2fMI&#10;IoXUH7tVQVr2ONk2bxURSckcdf7+gcCYLIJ4i6UobKth7izA4XkEkcLpgi0bd/YOErFk7+kUEcnA&#10;nHX+/sKstMRSFLY1UwiwD3b1kkg1jgFW9g4RsQkU4MSciEgd6lmJHAPcm1UQb7EUha31KpxaL+z+&#10;TJFKLQYc6h0ics9jd9KKiJRVPc2rH6NA14PGUhRWup9pD2CDkEGkUE7BrtiS1g30DiAi4qyePdWF&#10;OGDSLJaisNINmh2AU4FOAbNIMWwD/NY7ROQaKdBeGBGRGo2r8fcNB27NMoi3WIrCau7HXBn4e6gg&#10;Ugh9gJOwqxKldYOwm0xERMqs1ju6bwFGZZjDXYpFIcBRwLohgkjy2gGXAot7B0nAfd4BREQiMLGG&#10;3zMFuD7rIN5iKQpHV/nruwDnAt0DZJG0nQZs7x0iAZOB27xDiIhEoGsNv+cpCng9aCxF4avAT1X+&#10;nuWBfwbIIunaDfizd4hEPAcM9g4hIhKBWorCGzNPEYFYisKvgbdr+H0HAwMyziJp2gi4EN1tXKm7&#10;vAOIiESi2ruPvwZuChHEWyxFIcBrNfyeDsB52I0nUl4rYHs7enoHScR4tHQsItKs2pnCW6j9cErU&#10;YioK/1fj71sEOD3LIJKURYHbgX7eQRLyCDDUO4SISCSqmVD4CbgqVBBvMRWF9WzY/BOwa1ZBJBlz&#10;Yj2i5nPOkZq7vAOIiESiL9bGrFIPAW8GyuIupqLwdeDzGn9vO+Ac7FozKYee2Ebfpb2DJGYkcId3&#10;CBGRSCxAdbXQvwPliEJMRWEjtS8hA8wKXAZ0zCaORKwL8F9gHe8gCbqH6ltAiYgUVd8qfu1bwN2h&#10;gsQgpqIQajtsMrV1gROyCCLRagCuBDbzDpKgRuA67xAiIhGpZj/6NVjT6sKKrSh8LoMxjkBtaors&#10;n8DO3iES9TLwpHcIEZGIVFoUjqQEb6pjKwqfpvZ9hc06AZdghxCkWHYFjvYOkbDCXckkIlKnSpeP&#10;/wuMCBkkBrEVhZOxq2PqNR9wBdpfWCRrY82pO3gHSdQI4AbvECIikZmtgl8zDrg4dJAYxFYUQnbL&#10;WwNQ/8KiWBPrHj+zd5CE3QJ87x1CRCQylSwf3wC8FzpIDGIsCh8GJmQ01qHA3hmNJT42wU57zeEd&#10;JGFT0NKxiEhL2popHA+cn0eQGMRYFH6JbYjPQjvgbGDDjMaTfG2PXcemawzr8zTwgncIEZHIdKLt&#10;yw9uAt4OHyUOMRaFkO0JyR7Af7D7cSUdewHXAt29gxSA9hKKiPzaCsz4irsJlGiWEOItCh/PeLzZ&#10;gZuxzuUSv79gJ8i7eAcpgE9RUSgi0pKF2vj5W4A38ggSi1iLwmeATzIecyHgTmDejMeV7HQELgVO&#10;QyfHs3INtidGRESmNaOicAJwbl5BYhFrUTgFuD/AuMs0jasZw/j0Am4F9nPOUSTfA5d7hxARidQy&#10;M/i5q4BBOeWIRqxFIYS7X3BJ4F5g4UDjS/UWBh4BtvYOUjD/Bb7xDiEiEqEGYMVWfu5b4JQcs0Qj&#10;5qLwMeDdQGMvgbW+WSvQ+FK59bCCcCXvIAUzEbjMO4SISKSWBeZp5efOAL7KMUs0Yi4KG4H7Ao4/&#10;P/AgsGfAZ8iMHYz9HWufZ/buBd70DiEiEqlVW/nx/2G3Z5VSzEUh2MGQxoDjd8cONug+3Xz1Bm4E&#10;LgBmcs5SRI1oL6GIyIws18KPTQSObPq2lGIvCl8AXg/8jI7Y3oHTAj9HzDLAo8CO3kEK7FlsSV5E&#10;RFq2XAs/dgnwRM45ohJ7UQhhl5CbNfBLb7wOOTyvrPbDGpOrkXg4jZSwjYKISBW6YYdOpzYYOD7/&#10;KHFJoSi8HZic07P2B+7AljclO/NiWwEuRX+2od3Z9CEiIi1bA7vtrNl44EBgjE+ceKRQFA4m+xtO&#10;ZmRLYCAz7l8klfsjtg3gt74xSuEH4B/eIUREIrf4dN8/A9t2U3opFIVghxLytBLwNHBUzs8tkt8A&#10;1wNXN/23hHch8I53CBGRyM031X8/D5zslCM6qRSFNwOf5fzMmYHTgWvRkmc12mOtZl4Gdsb2a0p4&#10;Q7DPVxERmbG5m779CNgdmOSYJSqpFIXjscIwbw3AbsCLQH+H56dmY+xd1wXAXM5ZyuYUtB9GRKQS&#10;fbDLMbYDPnTOEpWGxsaQbQAztSjwBtDZ6fnjgSuAk7ArcOQXC2J72XbBZgolXw8BA7xDiIgk4k/A&#10;Xdj98DKVlIpCgHuwgyCePsdmZS4nbGPtFMwNHArshS23S/7GA2sDr3kHERGRtKWyfNzsBu8A2F2J&#10;l2EHUfr7RnGzMHA+djL8CFQQeroUFYQiIpKB1GYK22OnKxfxDtJkEnA3cBHwlHOWPCyJzQzuhDX/&#10;FF+fYCflv/MOIiIi6UttpnAycKV3iKl0BLbF+ig+iP/SdgjtgN8BtwKvAnujgjAW/0QFoYiIZCS1&#10;mUKwpcp3gDm8g7TiOeAa7CaWUb5R6rIMVvBuy68bfYq/h4FNvUOIiEhxpFgUgt1PeJx3iDZ8h93b&#10;fBd2QCavq/rqsSLWVmYzYHV0kjhW44E1gde9g4iISHGkWhT2w2YLZ/EOUqFPsL2HjwNPAD/6xvn/&#10;5gXWBVYD1gGWQM2mU3A2cKR3CBERKZZUi0KAs7CTr6kZDbyENXl+Hjug8lOOz18C2BrYCjuk0CHH&#10;Z0v9Psb+3tRfS0REMpVyUTgf1hKlh3OOeo0E3seu2xmCfdEfgjXqrubqnV5YY+85sP6JfZp+rB/W&#10;T3BBYAVgITQbmKpG7OrA/3oHERGR4km5KATrF7ivd4hAxmH7Esdgs4vN347FDtv0AfpiS+jdSL84&#10;lrbdBOzoHUJERIop9aJwCaxNSlfvICKBfQ2sCgz1DiIiIsWUWp/C6b0DXOsdQiQHx6KCUEREAkp9&#10;phBgLmAQ6ZxEFqnWLcAO3iFERKTYUp8pBPgC21soUkSfAod4hxARkeIrwkwh2Cnb17ETySJF8TOw&#10;HdYAXUREJKgizBSCXSd3vncIkYxdiApCERHJSVFmCgE6YieRl/EOIpKBx4HNgQneQUREpByKMlMI&#10;1uj5dO8QIhn4AtgbFYQiIpKjIhWFYDc9PO4dQqQO44A9sZttREREclO0orAR+D/s1g+R1EwBDgMG&#10;OucQEZESKlpRCPAacLF3CJEanAhc4R1CRETKqUgHTabWE3gJWMw7iEiFrsGWjQv5D1JEROJX1KIQ&#10;YAvgboo5GyrFMhhYC/jBO4iIiJRXkQum+7DrwURiNg7YHxWEIiLirMhFIdihk2HeIURm4ETgee8Q&#10;IiIiRS8Kh6LehRKvh4AzvEOIiIhAsfcUNmsH3IPdDiESi0+A/sDnzjlERESA4s8UgvV+Owj40juI&#10;SJMJ2D5CFYQiIhKNMhSFAJ8CR6N2H+KvEfgb8LB3EBERkamVpSgEuB641juElN4ZwDneIURERKZX&#10;hj2FU+sNPAcs7h1ESukmYCc0Yy0iIhEq00whwPfY/sKJ3kGkdG4BdkcFoYiIRKpsRSHA42j5TvJ1&#10;ObAz8JN3EBERkdaUbfm4WUesR9z63kGk0CYAfwfO9g4iIiLSlrIWhQBzA88A83oHkUKaCBwIXOUd&#10;REREpBJlXD5uNhT7oq39hZK1idjeVRWEIiKSjDIXhQD3o6U9ydZPwH7Ald5BREREqlHm5eNm7YB7&#10;gc28g0jyxmE3lVznHURERKRaKgpNP+yGieWcc0i6xgJ7Yb0IRUREkqOi8BeLYu1q5vAOIskZBewK&#10;3OecQ0REpGZl31M4tfexmZ5x3kEkKd8A26CCUEREEqeicFoPAkcBU7yDSBKGAAOAJ7yDiIiI1EtF&#10;4a9dgk4kS9teBDYCBjnnEBERyYT2FLasAfgXsLd3EInSfcBu2F3aIiIihaCZwpY1Yq1FrvUOIlFp&#10;xN4sbIsKQhERKRjNFM5YZ+B2YHPvIOJuHHA0cKF3EBERkRBUFLatJ3A30N85h/gZCuwBPOodRERE&#10;JBQtH7dtDPBbYKBzDvHxJLABKghFRKTgVBRWZjSwHXbriZTDZOACYFPgA+csIiIiwWn5uDrdgRuA&#10;rbyDSFDDgEOAW7yDiIiI5EVFYfW6AtdhJ1CleJ4G9sFuuBERESkNLR9XbzywM3CxdxDJ1HjgZGB9&#10;VBCKiEgJaaawPscBfwc6eAeRurwOHAw85x1ERETEi4rC+u0MXAr08A4iVRuP9R08AetDKCIiUloq&#10;CrMxALgGmM07iFTsJeBw4AXvICIiIjFQUZidpbHCcEXvIDJD3wFnA2cBPzlnERERiYaKwmx1A84F&#10;9vYOIr/SCNyFXVU3xDeKiIhIfHT6OFtjsXYmR6A9ajEZBPwO2AYVhCIiIi3STGE46wOXAwt6Bymx&#10;z7Cl4suASc5ZREREoqaiMKx+wDnATkCDc5Yy+Q64BCsIR/lGERERSYOKwnzsApwB/MY7SMH9iF1D&#10;eBrwqW8UERGRtKgozM88WE883ZucPRWDIiIidVJRmK8G4EDgb8DszlmK4Cvg39iewaG+UURERNKm&#10;otDHbNgtGnuiK/Jq8Q5wNXAlMNo5i4iISCGoKPS1CXAqsLx3kARMBB4CbgRuA6b4xhERESkWFYX+&#10;OgMHYbOGiztnidFHwM3AtajHoIiISDAqCuPRHvgDsAewbtP3y2oYcD9wd9O3k33jiIiIFJ+Kwjgt&#10;D+wMbAvM65wlL8OAx4AHsOvoxrqmERERKRkVhXHrBGze9LEpMKdvnMy9hxWCA4GHsX2DIiIi4kBF&#10;YTo6YYVhf2AdYDnSW2IeCjwPPAc8g91JLCIiIhFQUZiuRbDicEVgJWBp7NBKLMYCb2GFX/PHy+jU&#10;sIiISJRUFBbHrFhxuETTx4LA3MBc1FYsNgJjmj5+aOG/p/+xH7Cegc0/9nHTtyIiIpIAFYXF1wWb&#10;RZyr6WNuoAe/Lu6mLux+wJZ6VdSJiIiUhIpCEREREaGddwARERER8aeiUERERERUFIqIiIiIikIR&#10;ERERQUWhiIiIiKCiUERERERQUSgiIiIiqCgUEREREVQUioiIiAgqCkVEREQEFYUiIiIigopCERER&#10;EUFFoYiIiIigolBEREREUFEoIiIiIqgoFBERERFUFIqIiIgIKgpFREREBBWFIiIiIgL8Pz0NJ18P&#10;Ot+OAAAAAElFTkSuQmCC&#10;"
         id="image2"
         x="210.79507"
         y="-71.650589" /></g></g></svg>
